…
## Loading and preprocessing the data
Activity data is stored in a csv file inside a zip archive.

```r
library(dplyr)

## Unzip the data
unzip("./activity.zip") 

## Load the .csv into memory and preview its contents
activity <- as_tibble(read.csv("./activity.csv")) %>% print() 
```

```
## # A tibble: 17,568 x 3
##    steps date       interval
##    <int> <chr>         <int>
##  1    NA 2012-10-01        0
##  2    NA 2012-10-01        5
##  3    NA 2012-10-01       10
##  4    NA 2012-10-01       15
##  5    NA 2012-10-01       20
##  6    NA 2012-10-01       25
##  7    NA 2012-10-01       30
##  8    NA 2012-10-01       35
##  9    NA 2012-10-01       40
## 10    NA 2012-10-01       45
## # ... with 17,558 more rows
```
…
```r
## Impute missing data through retrieving interval mean by index
imputed_mean <- activity %>% 
  
  ## Calculate the index corresponding to mean for interval
  mutate(index = interval/5 + 1 - 8 * floor(interval/100)) %>%
  
  ## Impute the mean in place of missing interval data
  mutate(steps = ifelse(is.na(steps), mean_steps[index], steps)) %>%
  print()
```

```
## # A tibble: 17,568 x 4
##     steps date       interval index
##     <dbl> <date>        <int> <dbl>
##  1 1.72   2012-10-01        0     1
##  2 0.340  2012-10-01        5     2
##  3 0.132  2012-10-01       10     3
##  4 0.151  2012-10-01       15     4
##  5 0.0755 2012-10-01       20     5
##  6 2.09   2012-10-01       25     6
##  7 0.528  2012-10-01       30     7
##  8 0.868  2012-10-01       35     8
##  9 0      2012-10-01       40     9
## 10 1.47   2012-10-01       45    10
## # ... with 17,558 more rows
```
…
